<?xml version="1.0" encoding="UTF-8" standalone="no"?>
<!-- Created with Inkscape (http://www.inkscape.org/) -->

<svg
   width="192"
   height="192"
   id="svg2"
   version="1.1"
   inkscape:version="1.1.1 (3bf5ae0d25, 2021-09-20)"
   sodipodi:docname="cantina-icon.svg"
   inkscape:export-filename="/home/fudgedroid/Projects/Standard/C/Cantina-rewrite/ico/cantina-icon.png"
   inkscape:export-xdpi="24"
   inkscape:export-ydpi="24"
   xmlns:inkscape="http://www.inkscape.org/namespaces/inkscape"
   xmlns:sodipodi="http://sodipodi.sourceforge.net/DTD/sodipodi-0.dtd"
   xmlns:xlink="http://www.w3.org/1999/xlink"
   xmlns="http://www.w3.org/2000/svg"
   xmlns:svg="http://www.w3.org/2000/svg"
   xmlns:rdf="http://www.w3.org/1999/02/22-rdf-syntax-ns#"
   xmlns:cc="http://creativecommons.org/ns#"
   xmlns:dc="http://purl.org/dc/elements/1.1/">
  <title
     id="title914">Cantina Icon</title>
  <defs
     id="defs4">
    <linearGradient
       id="linearGradient1031"
       inkscape:swatch="solid">
      <stop
         style="stop-color:#2196f3;stop-opacity:1;"
         offset="0"
         id="stop1029" />
    </linearGradient>
    <linearGradient
       id="linearGradient3804">
      <stop
         style="stop-color:#ffffff;stop-opacity:1;"
         offset="0"
         id="stop3806" />
      <stop
         id="stop3814"
         offset="0.33333333"
         style="stop-color:#ffffff;stop-opacity:0.5;" />
      <stop
         style="stop-color:#ffffff;stop-opacity:0;"
         offset="1"
         id="stop3808" />
    </linearGradient>
    <filter
       id="filter2996"
       style="color-interpolation-filters:sRGB;"
       inkscape:label="Drop Shadow"
       x="-0.27692308"
       y="-0.56255151"
       width="1.5538462"
       height="2.3594995">
      <feFlood
         id="feFlood2998"
         flood-opacity="0.2"
         flood-color="rgb(0,0,0)"
         result="flood" />
      <feComposite
         id="feComposite3000"
         in2="SourceGraphic"
         in="flood"
         operator="in"
         result="composite1" />
      <feGaussianBlur
         id="feGaussianBlur3002"
         in="composite"
         stdDeviation="6"
         result="blur" />
      <feOffset
         id="feOffset3004"
         dx="0"
         dy="6"
         result="offset" />
      <feComposite
         id="feComposite3006"
         in2="offset"
         in="SourceGraphic"
         operator="over"
         result="fbSourceGraphic" />
      <feColorMatrix
         result="fbSourceGraphicAlpha"
         in="fbSourceGraphic"
         values="0 0 0 -1 0 0 0 0 -1 0 0 0 0 -1 0 0 0 0 1 0"
         id="feColorMatrix3008" />
      <feFlood
         id="feFlood3010"
         flood-opacity="0.2"
         flood-color="rgb(0,0,0)"
         result="flood"
         in="fbSourceGraphic" />
      <feComposite
         id="feComposite3012"
         in2="fbSourceGraphic"
         in="flood"
         operator="in"
         result="composite1" />
      <feGaussianBlur
         id="feGaussianBlur3014"
         in="composite"
         stdDeviation="6"
         result="blur" />
      <feOffset
         id="feOffset3016"
         dx="0"
         dy="6"
         result="offset" />
      <feComposite
         id="feComposite3018"
         in2="offset"
         in="fbSourceGraphic"
         operator="over"
         result="composite2" />
    </filter>
    <filter
       id="filter3790"
       style="color-interpolation-filters:sRGB;"
       inkscape:label="Drop Shadow">
      <feFlood
         id="feFlood3792"
         flood-opacity="0"
         flood-color="rgb(0,0,0)"
         result="flood" />
      <feComposite
         id="feComposite3794"
         in2="SourceGraphic"
         in="flood"
         operator="in"
         result="composite1" />
      <feOffset
         id="feOffset3796"
         dx="0"
         dy="0"
         result="offset" />
      <feComposite
         id="feComposite3798"
         in2="offset"
         in="SourceGraphic"
         operator="over"
         result="composite2" />
    </filter>
    <linearGradient
       inkscape:collect="always"
       xlink:href="#linearGradient3804"
       id="linearGradient3810"
       x1="0.35359117"
       y1="861.24615"
       x2="192.35359"
       y2="1051.4781"
       gradientUnits="userSpaceOnUse" />
    <filter
       id="filter2996-5"
       style="color-interpolation-filters:sRGB"
       inkscape:label="Drop Shadow"
       x="-0.27692308"
       y="-0.54540612"
       width="1.5538462"
       height="2.3180648">
      <feFlood
         id="feFlood2998-8"
         flood-opacity="0.2"
         flood-color="rgb(0,0,0)"
         result="flood" />
      <feComposite
         id="feComposite3000-3"
         in2="SourceGraphic"
         in="flood"
         operator="in"
         result="composite1" />
      <feGaussianBlur
         id="feGaussianBlur3002-5"
         stdDeviation="6"
         result="blur" />
      <feOffset
         id="feOffset3004-7"
         dx="0"
         dy="6"
         result="offset" />
      <feComposite
         id="feComposite3006-4"
         in2="offset"
         in="SourceGraphic"
         operator="over"
         result="fbSourceGraphic" />
      <feColorMatrix
         result="fbSourceGraphicAlpha"
         in="fbSourceGraphic"
         values="0 0 0 -1 0 0 0 0 -1 0 0 0 0 -1 0 0 0 0 1 0"
         id="feColorMatrix3008-2" />
      <feFlood
         id="feFlood3010-8"
         flood-opacity="0.2"
         flood-color="rgb(0,0,0)"
         result="flood"
         in="fbSourceGraphic" />
      <feComposite
         id="feComposite3012-8"
         in2="fbSourceGraphic"
         in="flood"
         operator="in"
         result="composite1" />
      <feGaussianBlur
         id="feGaussianBlur3014-5"
         stdDeviation="6"
         result="blur" />
      <feOffset
         id="feOffset3016-1"
         dx="0"
         dy="6"
         result="offset" />
      <feComposite
         id="feComposite3018-5"
         in2="offset"
         in="fbSourceGraphic"
         operator="over"
         result="composite2" />
    </filter>
    <filter
       id="filter2996-4"
       style="color-interpolation-filters:sRGB"
       inkscape:label="Drop Shadow"
       x="-0.27692307"
       y="-0.56255146"
       width="1.5538461"
       height="2.3594994">
      <feFlood
         id="feFlood2998-1"
         flood-opacity="0.2"
         flood-color="rgb(0,0,0)"
         result="flood" />
      <feComposite
         id="feComposite3000-37"
         in2="SourceGraphic"
         in="flood"
         operator="in"
         result="composite1" />
      <feGaussianBlur
         id="feGaussianBlur3002-1"
         stdDeviation="6"
         result="blur" />
      <feOffset
         id="feOffset3004-6"
         dx="0"
         dy="6"
         result="offset" />
      <feComposite
         id="feComposite3006-2"
         in2="offset"
         in="SourceGraphic"
         operator="over"
         result="fbSourceGraphic" />
      <feColorMatrix
         result="fbSourceGraphicAlpha"
         in="fbSourceGraphic"
         values="0 0 0 -1 0 0 0 0 -1 0 0 0 0 -1 0 0 0 0 1 0"
         id="feColorMatrix3008-5" />
      <feFlood
         id="feFlood3010-0"
         flood-opacity="0.2"
         flood-color="rgb(0,0,0)"
         result="flood"
         in="fbSourceGraphic" />
      <feComposite
         id="feComposite3012-9"
         in2="fbSourceGraphic"
         in="flood"
         operator="in"
         result="composite1" />
      <feGaussianBlur
         id="feGaussianBlur3014-8"
         stdDeviation="6"
         result="blur" />
      <feOffset
         id="feOffset3016-9"
         dx="0"
         dy="6"
         result="offset" />
      <feComposite
         id="feComposite3018-3"
         in2="offset"
         in="fbSourceGraphic"
         operator="over"
         result="composite2" />
    </filter>
    <filter
       id="filter2996-3"
       style="color-interpolation-filters:sRGB"
       inkscape:label="Drop Shadow"
       x="-0.27692306"
       y="-0.56255148"
       width="1.5538461"
       height="2.3594994">
      <feFlood
         id="feFlood2998-9"
         flood-opacity="0.2"
         flood-color="rgb(0,0,0)"
         result="flood" />
      <feComposite
         id="feComposite3000-1"
         in2="SourceGraphic"
         in="flood"
         operator="in"
         result="composite1" />
      <feGaussianBlur
         id="feGaussianBlur3002-9"
         stdDeviation="6"
         result="blur" />
      <feOffset
         id="feOffset3004-68"
         dx="0"
         dy="6"
         result="offset" />
      <feComposite
         id="feComposite3006-3"
         in2="offset"
         in="SourceGraphic"
         operator="over"
         result="fbSourceGraphic" />
      <feColorMatrix
         result="fbSourceGraphicAlpha"
         in="fbSourceGraphic"
         values="0 0 0 -1 0 0 0 0 -1 0 0 0 0 -1 0 0 0 0 1 0"
         id="feColorMatrix3008-6" />
      <feFlood
         id="feFlood3010-9"
         flood-opacity="0.2"
         flood-color="rgb(0,0,0)"
         result="flood"
         in="fbSourceGraphic" />
      <feComposite
         id="feComposite3012-1"
         in2="fbSourceGraphic"
         in="flood"
         operator="in"
         result="composite1" />
      <feGaussianBlur
         id="feGaussianBlur3014-1"
         stdDeviation="6"
         result="blur" />
      <feOffset
         id="feOffset3016-2"
         dx="0"
         dy="6"
         result="offset" />
      <feComposite
         id="feComposite3018-4"
         in2="offset"
         in="fbSourceGraphic"
         operator="over"
         result="composite2" />
    </filter>
    <filter
       id="filter2996-7"
       style="color-interpolation-filters:sRGB"
       inkscape:label="Drop Shadow"
       x="-0.86794934"
       y="-0.86794989"
       width="2.7358987"
       height="3.0975456">
      <feFlood
         id="feFlood2998-5"
         flood-opacity="0.2"
         flood-color="rgb(0,0,0)"
         result="flood" />
      <feComposite
         id="feComposite3000-6"
         in2="SourceGraphic"
         in="flood"
         operator="in"
         result="composite1" />
      <feGaussianBlur
         id="feGaussianBlur3002-15"
         stdDeviation="6"
         result="blur" />
      <feOffset
         id="feOffset3004-5"
         dx="0"
         dy="6"
         result="offset" />
      <feComposite
         id="feComposite3006-31"
         in2="offset"
         in="SourceGraphic"
         operator="over"
         result="fbSourceGraphic" />
      <feColorMatrix
         result="fbSourceGraphicAlpha"
         in="fbSourceGraphic"
         values="0 0 0 -1 0 0 0 0 -1 0 0 0 0 -1 0 0 0 0 1 0"
         id="feColorMatrix3008-61" />
      <feFlood
         id="feFlood3010-4"
         flood-opacity="0.2"
         flood-color="rgb(0,0,0)"
         result="flood"
         in="fbSourceGraphic" />
      <feComposite
         id="feComposite3012-2"
         in2="fbSourceGraphic"
         in="flood"
         operator="in"
         result="composite1" />
      <feGaussianBlur
         id="feGaussianBlur3014-4"
         stdDeviation="6"
         result="blur" />
      <feOffset
         id="feOffset3016-95"
         dx="0"
         dy="6"
         result="offset" />
      <feComposite
         id="feComposite3018-0"
         in2="offset"
         in="fbSourceGraphic"
         operator="over"
         result="composite2" />
    </filter>
    <filter
       id="filter2996-56"
       style="color-interpolation-filters:sRGB"
       inkscape:label="Drop Shadow"
       x="-0.39951229"
       y="-0.67596954"
       width="1.7990246"
       height="2.6335931">
      <feFlood
         id="feFlood2998-6"
         flood-opacity="0.2"
         flood-color="rgb(0,0,0)"
         result="flood" />
      <feComposite
         id="feComposite3000-9"
         in2="SourceGraphic"
         in="flood"
         operator="in"
         result="composite1" />
      <feGaussianBlur
         id="feGaussianBlur3002-3"
         stdDeviation="6"
         result="blur" />
      <feOffset
         id="feOffset3004-9"
         dx="0"
         dy="6"
         result="offset" />
      <feComposite
         id="feComposite3006-37"
         in2="offset"
         in="SourceGraphic"
         operator="over"
         result="fbSourceGraphic" />
      <feColorMatrix
         result="fbSourceGraphicAlpha"
         in="fbSourceGraphic"
         values="0 0 0 -1 0 0 0 0 -1 0 0 0 0 -1 0 0 0 0 1 0"
         id="feColorMatrix3008-64" />
      <feFlood
         id="feFlood3010-2"
         flood-opacity="0.2"
         flood-color="rgb(0,0,0)"
         result="flood"
         in="fbSourceGraphic" />
      <feComposite
         id="feComposite3012-6"
         in2="fbSourceGraphic"
         in="flood"
         operator="in"
         result="composite1" />
      <feGaussianBlur
         id="feGaussianBlur3014-7"
         stdDeviation="6"
         result="blur" />
      <feOffset
         id="feOffset3016-3"
         dx="0"
         dy="6"
         result="offset" />
      <feComposite
         id="feComposite3018-54"
         in2="offset"
         in="fbSourceGraphic"
         operator="over"
         result="composite2" />
    </filter>
  </defs>
  <sodipodi:namedview
     id="base"
     pagecolor="#000000"
     bordercolor="#666666"
     borderopacity="1.0"
     inkscape:pageopacity="0"
     inkscape:pageshadow="2"
     inkscape:zoom="2.8284271"
     inkscape:cx="-39.951533"
     inkscape:cy="100.23239"
     inkscape:document-units="px"
     inkscape:current-layer="layer1"
     showgrid="false"
     inkscape:showpageshadow="false"
     inkscape:window-width="1077"
     inkscape:window-height="745"
     inkscape:window-x="0"
     inkscape:window-y="17"
     inkscape:window-maximized="1"
     showguides="true"
     inkscape:guide-bbox="true"
     inkscape:pagecheckerboard="0"
     inkscape:snap-smooth-nodes="false"
     inkscape:snap-bbox="false"
     inkscape:object-paths="false"
     inkscape:object-nodes="false"
     inkscape:snap-nodes="true"
     inkscape:snap-global="true"
     inkscape:snap-intersection-paths="false"
     inkscape:snap-object-midpoints="true" />
  <metadata
     id="metadata7">
    <rdf:RDF>
      <cc:Work
         rdf:about="">
        <dc:format>image/svg+xml</dc:format>
        <dc:type
           rdf:resource="http://purl.org/dc/dcmitype/StillImage" />
        <cc:license
           rdf:resource="http://creativecommons.org/licenses/by/4.0/" />
        <dc:title>Cantina Icon</dc:title>
        <dc:date>31122021</dc:date>
        <dc:creator>
          <cc:Agent>
            <dc:title>mirk0dex</dc:title>
          </cc:Agent>
        </dc:creator>
      </cc:Work>
      <cc:License
         rdf:about="http://creativecommons.org/licenses/by/4.0/">
        <cc:permits
           rdf:resource="http://creativecommons.org/ns#Reproduction" />
        <cc:permits
           rdf:resource="http://creativecommons.org/ns#Distribution" />
        <cc:requires
           rdf:resource="http://creativecommons.org/ns#Notice" />
        <cc:requires
           rdf:resource="http://creativecommons.org/ns#Attribution" />
        <cc:permits
           rdf:resource="http://creativecommons.org/ns#DerivativeWorks" />
      </cc:License>
    </rdf:RDF>
  </metadata>
  <g
     inkscape:label="Material Background"
     inkscape:groupmode="layer"
     id="layer1"
     transform="translate(0,-860.36218)">
    <rect
       style="fill-opacity:1;stroke:none;stroke-width:1;fill:#458588;fill-rule:nonzero"
       id="rect2987"
       width="152"
       height="152.00127"
       x="20"
       y="880.36218"
       rx="12.081006" />
    <rect
       style="fill:#b16286;fill-opacity:1;stroke:none"
       id="rect212"
       width="152.00127"
       height="152"
       x="21.998734"
       y="882.36218"
       rx="12.081006" />
  </g>
  <g
     inkscape:groupmode="layer"
     id="layer3"
     inkscape:label="Material Foreground"
     style="display:inline">
    <path
       id="path20189"
       style="fill:#ebdbb2;fill-opacity:1;stroke:none;stroke-width:0;stroke-miterlimit:4;stroke-dasharray:none;filter:url(#filter2996)"
       d="M 44,22 V 73.195312 H 148 V 22 Z m 8.595703,6.701172 H 80 V 69.761719 H 52.595703 Z"
       transform="matrix(-1.0116581,0,0,0.89003302,195.11918,2.4192762)" />
    <path
       id="path5803"
       style="display:inline;fill:#ebdbb2;fill-opacity:1;stroke:none;stroke-width:0;stroke-miterlimit:4;stroke-dasharray:none;filter:url(#filter2996-56)"
       d="m 45.809915,124.33422 v 42.60547 h 72.087895 v -42.60547 z"
       transform="matrix(1.4595022,0,0,1.0694758,-21.465892,-4.537956)"
       sodipodi:nodetypes="ccccc" />
    <path
       id="path20189-3"
       style="display:inline;fill:#ebdbb2;fill-opacity:1;stroke:none;stroke-width:0;stroke-miterlimit:4;stroke-dasharray:none;filter:url(#filter2996-7)"
       d="M 95.99902,73.409181 A 16.590969,16.590969 0 0 0 79.40917,89.999017 16.590969,16.590969 0 0 0 95.99902,106.59082 16.590969,16.590969 0 0 0 112.59083,89.999017 16.590969,16.590969 0 0 0 95.99902,73.409181 Z"
       transform="matrix(1.1065957,0,0,1.1065957,-8.233187,-2.233188)" />
  </g>
  <g
     inkscape:groupmode="layer"
     id="layer2"
     inkscape:label="Finish"
     style="display:inline"
     sodipodi:insensitive="true">
    <rect
       transform="translate(0,-860.36218)"
       style="opacity:0.1;fill:url(#linearGradient3810);fill-opacity:1;stroke:none"
       id="rect3802"
       width="192"
       height="192"
       x="0"
       y="860.36218" />
  </g>
</svg>
